5 Lesson 2a: Feature engineering | Data Mining with R
…
# one-hot encode
ohe <- ames_recipe %>%
  step_dummy(all_nominal(), one_hot = TRUE)

# dummy encode
de <- ames_recipe %>%
  step_dummy(all_nominal(), one_hot = FALSE)

5.6.2 Ordinal encoding

If a categorical feature is naturally ordered then numerically encoding the feature based on its order is a natural choice (most commonly referred to as ordinal encoding). For example, the various quality features in the Ames housing data are ordinal in nature (ranging from Very_Poor to Very_Excellent).

train %>% select(matches('Qual$|QC$|_Cond$'))
## # A tibble: 2,051 × 11
##    Overall_Qual  Overal…¹ Exter…² Exter…³ Bsmt_…⁴ Bsmt_…⁵ Heati…⁶ Kitch…⁷ Garag…⁸ Garag…⁹
##    <chr>         <chr>    <chr>   <chr>   <chr>   <chr>   <chr>   <chr>   <chr>   <chr>  
##  1 Very_Good     Average  Good    Typical Good    Good    Excell… Good    Typical Typical
##  2 Above_Average Average  Good    Typical Good    Typical Excell… Good    Typical Typical
##  3 Below_Average Average  Typical Typical Good    Typical Good    Good    Typical Typical
##  4 Very_Good     Average  Good    Typical Good    Typical Excell… Good    Typical Typical
##  5 Above_Average Good     Typical Typical Typical Good    Typical Typical Typical Typical
##  6 Good          Average  Good    Typical Good    Typical Excell… Good    Typical Typical
##  7 Above_Average Average  Typical Typical Good    Typical Excell… Good    Typical Typical
##  8 Average       Average  Typical Typical Typical Typical Typical Typical Typical Typical
##  9 Average       Good     Typical Typical Fair    Typical Typical Typical Typical Typical
## 10 Below_Average Average  Typical Typical Typical Typical Typical Typical Typical Typical
## # … with 2,041 more rows, 1 more variable: Pool_QC <chr>, and abbreviated variable names
## #   ¹​Overall_Cond, ²​Exter_Qual, ³​Exter_Cond, ⁴​Bsmt_Qual, ⁵​Bsmt_Cond, ⁶​Heating_QC,
## #   ⁷​Kitchen_Qual, ⁸​Garage_Qual, ⁹​Garage_Cond
## # ℹ Use `print(n = ...)` to see more rows, and `colnames()` to see all variable names
…
Did this work, let’s take a look. If we want to apply a recipe to a data set we can apply:

prep: estimate feature engineering parameters based on training data.

bake: apply the prepped recipe to new, or the existing (new_data = NULL) data.

We can see that our quality variables are now ordinal encoded.

baked_recipe <- ord_lbl %>%
   prep(strings_as_factor = FALSE) %>%
   bake(new_data = NULL)

baked_recipe %>% select(matches('Qual$|QC$|_Cond$'))
## # A tibble: 2,051 × 11
##    Overall_Qual Overall…¹ Exter…² Exter…³ Bsmt_…⁴ Bsmt_…⁵ Heati…⁶ Kitch…⁷ Garag…⁸ Garag…⁹
##           <dbl>     <dbl>   <dbl>   <dbl>   <dbl>   <dbl>   <dbl>   <dbl>   <dbl>   <dbl>
##  1            9         5       8       6       8       8      10       8       6       6
##  2            7         5       8       6       8       6      10       8       6       6
##  3            4         5       6       6       8       6       8       8       6       6
##  4            9         5       8       6       8       6      10       8       6       6
##  5            7         8       6       6       6       8       6       6       6       6
##  6            8         5       8       6       8       6      10       8       6       6
##  7            7         5       6       6       8       6      10       8       6       6
##  8            5         5       6       6       6       6       6       6       6       6
##  9            5         8       6       6       3       6       6       6       6       6
## 10            4         5       6       6       6       6       6       6       6       6
## # … with 2,041 more rows, 1 more variable: Pool_QC <dbl>, and abbreviated variable names
## #   ¹​Overall_Cond, ²​Exter_Qual, ³​Exter_Cond, ⁴​Bsmt_Qual, ⁵​Bsmt_Cond, ⁶​Heating_QC,
## #   ⁷​Kitchen_Qual, ⁸​Garage_Qual, ⁹​Garage_Cond
## # ℹ Use `print(n = ...)` to see more rows, and `colnames()` to see all variable names
…
5.6.3 Lumping

Sometimes features will contain levels that have very few observations. For example, there are 28 unique neighborhoods represented in the Ames housing data but several of them only have a few observations.

## # A tibble: 28 × 2
##    Neighborhood            n
##    <chr>               <int>
##  1 Green_Hills             1
##  2 Landmark                1
##  3 Greens                  6
##  4 Blueste                 8
##  5 Northpark_Villa        16
##  6 Veenker                18
##  7 Briardale              20
##  8 Bloomington_Heights    22
##  9 Meadow_Village         26
## 10 Clear_Creek            29
## # … with 18 more rows
## # ℹ Use `print(n = ...)` to see more rows
…
