6 Lesson 2b: Multiple linear regression | Data Mining with R
…
In our discussion so far, we have assumed that all variables in our linear regression model are quantitative. But in practice, this is not necessarily the case; often some predictors are qualitative.

For example, the Credit data set provided by the ISLR package records the balance (average credit card debt for a number of individuals) as well as several quantitative predictors: age, cards (number of credit cards), education (years of education), income (in thousands of dollars), limit (credit limit), and rating (credit rating).

credit <- as_tibble(ISLR::Credit)
credit
## # A tibble: 400 × 12
##       ID Income Limit Rating Cards   Age Education Gender   Student
##    <int>  <dbl> <int>  <int> <int> <int>     <int> <fct>    <fct>  
##  1     1   14.9  3606    283     2    34        11 " Male"  No     
##  2     2  106.   6645    483     3    82        15 "Female" Yes    
##  3     3  105.   7075    514     4    71        11 " Male"  No     
##  4     4  149.   9504    681     3    36        11 "Female" No     
##  5     5   55.9  4897    357     2    68        16 " Male"  No     
##  6     6   80.2  8047    569     4    77        10 " Male"  No     
##  7     7   21.0  3388    259     2    37        12 "Female" No     
##  8     8   71.4  7114    512     2    87         9 " Male"  No     
##  9     9   15.1  3300    266     5    66        13 "Female" No     
## 10    10   71.1  6819    491     3    41        19 "Female" Yes    
## # ℹ 390 more rows
## # ℹ 3 more variables: Married <fct>, Ethnicity <fct>, Balance <int>
…
qual_model <- linear_reg() %>%
   fit(Balance ~ Gender, data = credit)

tidy(qual_model)
## # A tibble: 2 × 5
##   term        estimate std.error statistic  p.value
##   <chr>          <dbl>     <dbl>     <dbl>    <dbl>
## 1 (Intercept)    530.       32.0    16.6   3.31e-47
## 2 Gender Male    -19.7      46.1    -0.429 6.69e- 1

A similar process ensues for qualitative predictor categories with more than two levels. For instance, if we go back to our Ames housing data we’ll see that there is a Neighborhood variable. In our data there are 28 different neighborhoods.

ames_train %>%
   count(Neighborhood)
## # A tibble: 28 × 2
##    Neighborhood           n
##    <fct>              <int>
##  1 North_Ames           306
##  2 College_Creek        199
##  3 Old_Town             164
##  4 Edwards              131
##  5 Somerset             122
##  6 Northridge_Heights   116
##  7 Gilbert              111
##  8 Sawyer               108
##  9 Northwest_Ames        82
## 10 Sawyer_West           94
## # ℹ 18 more rows
…
So, naturally, we can assume there is some relationship between Neighborhood and Sale_Price. We can assess this relationship by running the following model.

Based on the results we see that the reference Neighborhood (which is North Ames based on levels(ames_train$Neighborhood)) has an average Sale_Price of $143,516.75 (based on the intercept). Whereas College Creek has a Sale_Price of $143,516.75 + $57,006.75 = $200,523.50. The p.value for College Creek is very small suggesting that this difference between North Ames and College Creek is statistically significant.

However, look at the results for the Sawyer neighborhood. The coefficient suggests that the average Sale_Price for the Sawyer neighborhood is $143,516.75 - $4,591.68 = $148,108.40. However, the p.value is 0.43 which suggests that there is no statistical difference between the reference neighborhood (North Ames) and Sawyer.

neighborhood_model <- linear_reg() %>%
   fit(Sale_Price ~ Neighborhood, data = ames_train)

tidy(neighborhood_model)
## # A tibble: 28 × 5
##    term                          estimate std.error statistic   p.value
##    <chr>                            <dbl>     <dbl>     <dbl>     <dbl>
##  1 (Intercept)                    143517.     2996.    47.9   0        
##  2 NeighborhoodCollege_Creek       57007.     4773.    11.9   8.04e- 32
##  3 NeighborhoodOld_Town           -19609.     5072.    -3.87  1.14e-  4
##  4 NeighborhoodEdwards            -10196.     5472.    -1.86  6.26e-  2
##  5 NeighborhoodSomerset            87794.     5612.    15.6   3.68e- 52
##  6 NeighborhoodNorthridge_Heigh…  177986.     5715.    31.1   2.85e-174
##  7 NeighborhoodGilbert             44653.     5807.     7.69  2.30e- 14
##  8 NeighborhoodSawyer              -4592.     5866.    -0.783 4.34e-  1
##  9 NeighborhoodNorthwest_Ames      44635.     6518.     6.85  9.87e- 12
## 10 NeighborhoodSawyer_West         40081.     6181.     6.48  1.11e- 10
## # ℹ 18 more rows
…
# remove some trouble variables
trbl_vars <- c("MS_SubClass", "Condition_2", "Exterior_1st", 
               "Exterior_2nd", "Misc_Feature")
ames_train <- ames_train %>%
   select(-trbl_vars)

# include all possible main effects
model3 <- linear_reg() %>%
   fit(Sale_Price ~ ., data = ames_train) 

# print estimated coefficients in a tidy data frame
tidy(model3)  
## # A tibble: 249 × 5
##    term                            estimate std.error statistic p.value
##    <chr>                              <dbl>     <dbl>     <dbl>   <dbl>
##  1 (Intercept)                     -1.76e+7   1.22e+7   -1.44   1.49e-1
##  2 MS_ZoningResidential_High_Dens…  6.16e+3   8.84e+3    0.697  4.86e-1
##  3 MS_ZoningResidential_Low_Densi…  3.69e+2   5.64e+3    0.0655 9.48e-1
##  4 MS_ZoningResidential_Medium_De…  9.51e+2   6.40e+3    0.149  8.82e-1
##  5 MS_ZoningA_agr                  -5.26e+4   5.44e+4   -0.966  3.34e-1
##  6 MS_ZoningC_all                  -1.55e+4   1.01e+4   -1.53   1.25e-1
##  7 MS_ZoningI_all                  -1.98e+4   2.70e+4   -0.736  4.62e-1
##  8 Lot_Frontage                    -1.67e+1   2.07e+1   -0.807  4.20e-1
##  9 Lot_Area                         5.89e-1   1.08e-1    5.47   5.24e-8
## 10 StreetPave                       1.52e+3   1.05e+4    0.145  8.85e-1
## # ℹ 239 more rows
…
If we wanted to assess which features have a relationship we could easily filter our model results to find which coefficients have p.values less than 0.05. In this model we see that 67 (68 minus the intercept) features have a statistical relationship with Sale_Price.

tidy(model3) %>%
   filter(p.value < 0.05)
## # A tibble: 68 × 5
##    term                            estimate std.error statistic p.value
##    <chr>                              <dbl>     <dbl>     <dbl>   <dbl>
##  1 Lot_Area                         5.89e-1     0.108      5.47 5.24e-8
##  2 Lot_ShapeModerately_Irregular    1.03e+4  3759.         2.74 6.21e-3
##  3 Land_ContourHLS                  1.62e+4  4288.         3.78 1.61e-4
##  4 Land_ContourLvl                  1.09e+4  3040.         3.57 3.61e-4
##  5 Lot_ConfigCulDSac                6.08e+3  2930.         2.07 3.82e-2
##  6 Lot_ConfigFR2                   -8.00e+3  3563.        -2.25 2.49e-2
##  7 Land_SlopeSev                   -3.42e+4 11287.        -3.03 2.48e-3
##  8 NeighborhoodCollege_Creek        2.66e+4 10478.         2.54 1.13e-2
##  9 NeighborhoodSomerset             2.31e+4  6180.         3.73 1.95e-4
## 10 NeighborhoodNorthridge_Heights   3.19e+4  6159.         5.19 2.37e-7
## # ℹ 58 more rows
…
This is basically saying that our model finds that these are the most influential features in our data set that have the largest impact on the predicted outcome. If we order our data based on the t-statistic we see similar results.

tidy(model3) %>%
   arrange(desc(statistic))
## # A tibble: 249 × 5
##    term                    estimate std.error statistic  p.value
##    <chr>                      <dbl>     <dbl>     <dbl>    <dbl>
##  1 Roof_MatlWdShngl        663237.   43673.       15.2  4.08e-49
##  2 Roof_MatlCompShg        591744.   41975.       14.1  6.74e-43
##  3 Roof_MatlWdShake        580841.   43901.       13.2  3.28e-38
##  4 Roof_MatlTar&Grv        585872.   44342.       13.2  4.08e-38
##  5 Second_Flr_SF               60.4      4.80     12.6  6.62e-35
##  6 Roof_MatlRoll           603645.   48760.       12.4  7.56e-34
##  7 Roof_MatlMembran        642865.   52863.       12.2  9.20e-33
##  8 Roof_MatlMetal          636083.   52812.       12.0  3.42e-32
##  9 First_Flr_SF                43.0      4.16     10.3  2.63e-24
## 10 NeighborhoodGreen_Hills 159547.   19970.        7.99 2.39e-15
## # ℹ 239 more rows
…
