11 Lesson 4a: Logistic Regression | Data Mining with R
…
# model 2
lr_fit2 <- lr_mod %>% 
  fit(Attrition ~ OverTime, data = churn_train)

11.5 Interpretation

Bear in mind that the coefficient estimates from logistic regression characterize the relationship between the predictor and response variable on a log-odds (i.e., logit) scale. Unlike, linear regression, this can make interpretation of coefficients difficult. At a macro level, larger coefficients suggest that that feature increases the odds of the response more than smaller valued coefficients.

However, for our purpose, it is easier to focus on the interpretation of the output. The following predicts the probability of employee attrition based on the two models we fit. So in this example, for the first observation our model predicts there is a 78% probability that the employee will not leave and a 22% probability that they will.

lr_fit1 %>% predict(churn_train, type = "prob")
## # A tibble: 1,028 × 2
##    .pred_No .pred_Yes
##       <dbl>     <dbl>
##  1    0.784    0.216 
##  2    0.778    0.222 
##  3    0.779    0.221 
##  4    0.834    0.166 
##  5    0.772    0.228 
##  6    0.813    0.187 
##  7    0.784    0.216 
##  8    0.906    0.0937
##  9    0.954    0.0463
## 10    0.807    0.193 
## # … with 1,018 more rows
## # ℹ Use `print(n = ...)` to see more rows
…
