12 Lesson 4b: Regularized Regression | Data Mining with R
…
# Step 3: fit model workflow
ridge_fit <- workflow() %>%
  add_recipe(model_recipe) %>%
  add_model(ridge_mod) %>%
  fit(data = ames_train)

# Step 4: extract and tidy results
ridge_fit %>%
  extract_fit_parsnip() %>%
  tidy()
## # A tibble: 309 × 3
##    term           estimate penalty
##    <chr>             <dbl>   <dbl>
##  1 (Intercept)     154704.    1000
##  2 Lot_Frontage      -841.    1000
##  3 Lot_Area          4067.    1000
##  4 Year_Built        4962.    1000
##  5 Year_Remod_Add    2876.    1000
##  6 Mas_Vnr_Area      3940.    1000
##  7 BsmtFin_SF_1      -957.    1000
##  8 BsmtFin_SF_2       597.    1000
##  9 Bsmt_Unf_SF      -2925.    1000
## 10 Total_Bsmt_SF     5941.    1000
## # … with 299 more rows
## # ℹ Use `print(n = ...)` to see more rows
…
