14 Lesson 5a: Hyperparameter Tuning | Data Mining with R
…
14.5.1 Tuning

Rather than specify set values for mixture and penalty, let’s instead build our model in a way that uses placeholders for values. We can do this using the tune() function:

reg_mod <- linear_reg(mixture = tune(), penalty = tune()) %>%
   set_engine("glmnet")

We can create a regular grid of values to try using some convenience functions for each hyperparameter:

reg_grid <- grid_regular(mixture(), penalty(), levels = 5)

The function grid_regular() is from the dials package. It chooses sensible values to try for each hyperparameter; here, we asked for 5 values each. Since we have two to tune, grid_regular() returns \(5 \times 5 = 25\) different possible tuning combinations to try in a data frame.

reg_grid
## # A tibble: 25 × 2
##    mixture      penalty
##      <dbl>        <dbl>
##  1    0    0.0000000001
##  2    0.25 0.0000000001
##  3    0.5  0.0000000001
##  4    0.75 0.0000000001
##  5    1    0.0000000001
##  6    0    0.0000000316
##  7    0.25 0.0000000316
##  8    0.5  0.0000000316
##  9    0.75 0.0000000316
## 10    1    0.0000000316
## # … with 15 more rows
## # ℹ Use `print(n = ...)` to see more rows

Now that we have our model with hyperparameter value placeholders and a grid of hyperparameter values to assess we can create a workflow object as we’ve done in the past and use tune_grid() to train our 25 models using our k-fold cross validation resamples.

# tune
tuning_results <- workflow() %>%
   add_recipe(model_recipe) %>%
   add_model(reg_mod) %>%
   tune_grid(resamples = kfolds, grid = reg_grid)

# assess results
tuning_results %>%
   collect_metrics() %>%
   filter(.metric == "rmse")
## # A tibble: 25 × 8
##         penalty mixture .metric .estimator   mean     n std_err .config              
##           <dbl>   <dbl> <chr>   <chr>       <dbl> <int>   <dbl> <chr>                
##  1 0.0000000001    0    rmse    standard   31373.     5   3012. Preprocessor1_Model01
##  2 0.0000000316    0    rmse    standard   31373.     5   3012. Preprocessor1_Model02
##  3 0.00001         0    rmse    standard   31373.     5   3012. Preprocessor1_Model03
##  4 0.00316         0    rmse    standard   31373.     5   3012. Preprocessor1_Model04
##  5 1               0    rmse    standard   31373.     5   3012. Preprocessor1_Model05
##  6 0.0000000001    0.25 rmse    standard   37912.     5   4728. Preprocessor1_Model06
##  7 0.0000000316    0.25 rmse    standard   37912.     5   4728. Preprocessor1_Model07
##  8 0.00001         0.25 rmse    standard   37912.     5   4728. Preprocessor1_Model08
##  9 0.00316         0.25 rmse    standard   37912.     5   4728. Preprocessor1_Model09
## 10 1               0.25 rmse    standard   37912.     5   4728. Preprocessor1_Model10
## # … with 15 more rows
## # ℹ Use `print(n = ...)` to see more rows
…
