3 Lesson 1b: First model with Tidymodels | Data Mining with R
…
We have fit a few different models. Now, if we want to see our predictions we can simply apply predict() and feed it the data set we want to make predictions on. Here, we can see the predictions made on our training data for our ordinary least square linear regression model.

lm_ols %>% predict(train)
## # A tibble: 2,051 × 1
##      .pred
##      <dbl>
##  1 217657.
##  2 214276.
##  3 223425.
##  4 260324.
##  5 109338.
##  6 195106.
##  7 222217.
##  8 126175.
##  9  98550.
## 10 120811.
## # … with 2,041 more rows
## # ℹ Use `print(n = ...)` to see more rows

And here we get the predicted values for our KNN model.

knn %>% predict(train)
## # A tibble: 2,051 × 1
##      .pred
##      <dbl>
##  1 194967.
##  2 192240 
##  3 174220 
##  4 269760 
##  5 113617.
##  6 173672 
##  7 174820 
##  8 120796 
##  9 114560 
## 10 121346 
## # … with 2,041 more rows
## # ℹ Use `print(n = ...)` to see more rows
…
