8 Lesson 3a: Feature engineering | Data Mining with R
…
Similar to the fit() function you’ve already seen, the recipe() function has two primary arguments:

A formula: Any variable on the left-hand side of the tilde (~) is considered the response variable (here, aSale_Price). On the right-hand side of the tilde are the predictors. Variables may be listed by name, or you can use the dot (.) to indicate all other variables as predictors.

The data: A recipe is associated with the data set used to create the model. This should always be the training set, so data = ames_train here.

Now we can start adding feature engineering steps onto our recipe using the pipe operator and applying specific feature engineering tasks. The sections that follow provide some discussion as to why we apply each feature engineering step and then we demonstrate how to add it to our recipe.

8.4 Numeric features

Pretty much all algorithms will work out of the box with numeric features. However, some algorithms make some assumptions regarding the distribution of our features. If we look at some of our numeric features, we can see that they span across different ranges:

ames_train %>%
   select_if(is.numeric)
## # A tibble: 2,051 × 35
##    Lot_Fr…¹ Lot_A…² Year_…³ Year_…⁴ Mas_V…⁵ BsmtF…⁶ BsmtF…⁷ Bsmt_…⁸ Total…⁹ First…˟
##       <dbl>   <dbl>   <dbl>   <dbl>   <dbl>   <dbl>   <dbl>   <dbl>   <dbl>   <dbl>
##  1       81   11216    2006    2006       0       7       0    1489    1489    1489
##  2        0    2998    2000    2000     513       3       0     403     756     768
##  3        0   17871    1995    1996       0       7       0    1680    1680    1680
##  4       85   10574    2005    2006       0       7       0    1082    1082    1082
##  5       50    6000    1939    1950       0       2      12     144     608     608
##  6       35    4251    2006    2007       0       7       0     625     625     625
##  7       65    8125    1994    1998     258       3       0     270    1408    1679
##  8       80    8480    1947    1950       0       6       0     390     832     832
##  9       60    7200    1951    1951       0       4       0     444     876     876
## 10        0   12735    1972    1972       0       2       0     264     864     864
## # … with 2,041 more rows, 25 more variables: Second_Flr_SF <dbl>,
## #   Low_Qual_Fin_SF <dbl>, Gr_Liv_Area <dbl>, Bsmt_Full_Bath <dbl>,
## #   Bsmt_Half_Bath <dbl>, Full_Bath <dbl>, Half_Bath <dbl>, Bedroom_AbvGr <dbl>,
## #   Kitchen_AbvGr <dbl>, TotRms_AbvGrd <dbl>, Fireplaces <dbl>, Garage_Cars <dbl>,
## #   Garage_Area <dbl>, Wood_Deck_SF <dbl>, Open_Porch_SF <dbl>,
## #   Enclosed_Porch <dbl>, Three_season_porch <dbl>, Screen_Porch <dbl>,
## #   Pool_Area <dbl>, Misc_Val <dbl>, Mo_Sold <dbl>, Year_Sold <dbl>, …
## # ℹ Use `print(n = ...)` to see more rows, and `colnames()` to see all variable names
…
If a categorical feature is naturally ordered then numerically encoding the feature based on its order is a natural choice (most commonly referred to as ordinal encoding). For example, the various quality features in the Ames housing data are ordinal in nature (ranging from Very_Poor to Very_Excellent).

ames_train %>% select(matches('Qual$|QC$|_Cond$'))
## # A tibble: 2,051 × 11
##    Overal…¹ Overa…² Exter…³ Exter…⁴ Bsmt_…⁵ Bsmt_…⁶ Heati…⁷ Kitch…⁸ Garag…⁹ Garag…˟
##    <chr>    <chr>   <chr>   <chr>   <chr>   <chr>   <chr>   <chr>   <chr>   <chr>  
##  1 Very_Go… Average Good    Typical Good    Good    Excell… Good    Typical Typical
##  2 Above_A… Average Good    Typical Good    Typical Excell… Good    Typical Typical
##  3 Below_A… Average Typical Typical Good    Typical Good    Good    Typical Typical
##  4 Very_Go… Average Good    Typical Good    Typical Excell… Good    Typical Typical
##  5 Above_A… Good    Typical Typical Typical Good    Typical Typical Typical Typical
##  6 Good     Average Good    Typical Good    Typical Excell… Good    Typical Typical
##  7 Above_A… Average Typical Typical Good    Typical Excell… Good    Typical Typical
##  8 Average  Average Typical Typical Typical Typical Typical Typical Typical Typical
##  9 Average  Good    Typical Typical Fair    Typical Typical Typical Typical Typical
## 10 Below_A… Average Typical Typical Typical Typical Typical Typical Typical Typical
## # … with 2,041 more rows, 1 more variable: Pool_QC <chr>, and abbreviated variable
## #   names ¹​Overall_Qual, ²​Overall_Cond, ³​Exter_Qual, ⁴​Exter_Cond, ⁵​Bsmt_Qual,
## #   ⁶​Bsmt_Cond, ⁷​Heating_QC, ⁸​Kitchen_Qual, ⁹​Garage_Qual, ˟​Garage_Cond
## # ℹ Use `print(n = ...)` to see more rows, and `colnames()` to see all variable names
…
Did this work, let’s take a look. If we want to apply a recipe to a data set we can apply:

prep: estimate feature engineering parameters based on training data.

bake: apply the prepped recipe to new, or the existing (new_data = NULL) data.

We can see that our quality variables are now ordinal encoded.

baked_recipe <- ord_lbl %>%
   prep(strings_as_factor = FALSE) %>%
   bake(new_data = NULL)

baked_recipe %>% select(matches('Qual$|QC$|_Cond$'))
## # A tibble: 2,051 × 11
##    Overal…¹ Overa…² Exter…³ Exter…⁴ Bsmt_…⁵ Bsmt_…⁶ Heati…⁷ Kitch…⁸ Garag…⁹ Garag…˟
##       <dbl>   <dbl>   <dbl>   <dbl>   <dbl>   <dbl>   <dbl>   <dbl>   <dbl>   <dbl>
##  1        9       5       8       6       8       8      10       8       6       6
##  2        7       5       8       6       8       6      10       8       6       6
##  3        4       5       6       6       8       6       8       8       6       6
##  4        9       5       8       6       8       6      10       8       6       6
##  5        7       8       6       6       6       8       6       6       6       6
##  6        8       5       8       6       8       6      10       8       6       6
##  7        7       5       6       6       8       6      10       8       6       6
##  8        5       5       6       6       6       6       6       6       6       6
##  9        5       8       6       6       3       6       6       6       6       6
## 10        4       5       6       6       6       6       6       6       6       6
## # … with 2,041 more rows, 1 more variable: Pool_QC <dbl>, and abbreviated variable
## #   names ¹​Overall_Qual, ²​Overall_Cond, ³​Exter_Qual, ⁴​Exter_Cond, ⁵​Bsmt_Qual,
## #   ⁶​Bsmt_Cond, ⁷​Heating_QC, ⁸​Kitchen_Qual, ⁹​Garage_Qual, ˟​Garage_Cond
## # ℹ Use `print(n = ...)` to see more rows, and `colnames()` to see all variable names
…
Sometimes features will contain levels that have very few observations. For example, there are 28 unique neighborhoods represented in the Ames housing data but several of them only have a few observations.

## # A tibble: 28 × 2
##    Neighborhood            n
##    <chr>               <int>
##  1 Green_Hills             1
##  2 Landmark                1
##  3 Greens                  6
##  4 Blueste                 8
##  5 Northpark_Villa        16
##  6 Veenker                18
##  7 Briardale              20
##  8 Bloomington_Heights    22
##  9 Meadow_Village         26
## 10 Clear_Creek            29
## # … with 18 more rows
## # ℹ Use `print(n = ...)` to see more rows
…
Now, there is a single function that can be used to prepare the recipe and train the model from the resulting predictors:

mlr_fit <- mlr_wflow %>%
   fit(data = ames_train)

The rf_fit object has the finalized recipe and fitted model objects inside. You may want to extract the model or recipe objects from the workflow. To do this, you can use the helper functions extract_fit_parsnip() and extract_recipe().

mlr_fit %>%
   extract_fit_parsnip() %>%
   tidy()
## # A tibble: 163 × 5
##    term                                             estim…¹ std.e…² stati…³ p.value
##    <chr>                                              <dbl>   <dbl>   <dbl>   <dbl>
##  1 (Intercept)                                      168020.  29181.  5.76   9.92e-9
##  2 MS_SubClassOne_and_Half_Story_Finished_All_Ages    -460.  26648. -0.0173 9.86e-1
##  3 MS_SubClassOne_Story_1945_and_Older               10808.  26368.  0.410  6.82e-1
##  4 MS_SubClassOne_Story_1946_and_Newer_All_Styles     2180.  25692.  0.0849 9.32e-1
##  5 MS_SubClassOne_Story_PUD_1946_and_Newer          -18599.  28321. -0.657  5.11e-1
##  6 MS_SubClassSplit_Foyer                             7735.  27007.  0.286  7.75e-1
##  7 MS_SubClassSplit_or_Multilevel                     9553.  29836.  0.320  7.49e-1
##  8 MS_SubClassTwo_Family_conversion_All_Styles_and…   7485.   6934.  1.08   2.81e-1
##  9 MS_SubClassTwo_Story_1945_and_Older                9382.  26359.  0.356  7.22e-1
## 10 MS_SubClassTwo_Story_1946_and_Newer               -1677.  25542. -0.0657 9.48e-1
## # … with 153 more rows, and abbreviated variable names ¹​estimate, ²​std.error,
## #   ³​statistic
## # ℹ Use `print(n = ...)` to see more rows
…
