2 Lesson 1a: Intro to machine learning | Data Mining with R
…
# data file path
library(here)
data_path <- here("data")

# access data
boston <- readr::read_csv(here(data_path, "boston.csv"))

# initial dimension
dim(boston)
## [1] 506  16

# features
dplyr::select(boston, -cmedv)
## # A tibble: 506 × 15
##      lon   lat    crim    zn indus  chas
##    <dbl> <dbl>   <dbl> <dbl> <dbl> <dbl>
##  1 -71.0  42.3 0.00632  18    2.31     0
##  2 -71.0  42.3 0.0273    0    7.07     0
##  3 -70.9  42.3 0.0273    0    7.07     0
##  4 -70.9  42.3 0.0324    0    2.18     0
##  5 -70.9  42.3 0.0690    0    2.18     0
##  6 -70.9  42.3 0.0298    0    2.18     0
##  7 -70.9  42.3 0.0883   12.5  7.87     0
##  8 -70.9  42.3 0.145    12.5  7.87     0
##  9 -70.9  42.3 0.211    12.5  7.87     0
## 10 -70.9  42.3 0.170    12.5  7.87     0
## # ℹ 496 more rows
## # ℹ 9 more variables: nox <dbl>, rm <dbl>,
## #   age <dbl>, dis <dbl>, rad <dbl>,
## #   tax <dbl>, ptratio <dbl>, b <dbl>,
## #   lstat <dbl>
…
observations: 768

objective: use biological attributes to predict the presence of diabetes

# access data
pima <- readr::read_csv(here(data_path, "pima.csv"))

# initial dimension
dim(pima)
## [1] 768   9

# features
dplyr::select(pima, -diabetes)
## # A tibble: 768 × 8
##    pregnant glucose pressure triceps insulin
##       <dbl>   <dbl>    <dbl>   <dbl>   <dbl>
##  1        6     148       72      35       0
##  2        1      85       66      29       0
##  3        8     183       64       0       0
##  4        1      89       66      23      94
##  5        0     137       40      35     168
##  6        5     116       74       0       0
##  7        3      78       50      32      88
##  8       10     115        0       0       0
##  9        2     197       70      45     543
## 10        8     125       96       0       0
## # ℹ 758 more rows
## # ℹ 3 more variables: mass <dbl>,
## #   pedigree <dbl>, age <dbl>
…
observations: 150

objective: use plant leaf attributes to predict the type of flower

# access data
iris <- readr::read_csv(here(data_path, "iris.csv"))

# initial dimension
dim(iris)
## [1] 150   5

# features
dplyr::select(iris, -Species)
## # A tibble: 150 × 4
##    Sepal.Length Sepal.Width Petal.Length
##           <dbl>       <dbl>        <dbl>
##  1          5.1         3.5          1.4
##  2          4.9         3            1.4
##  3          4.7         3.2          1.3
##  4          4.6         3.1          1.5
##  5          5           3.6          1.4
##  6          5.4         3.9          1.7
##  7          4.6         3.4          1.4
##  8          5           3.4          1.5
##  9          4.4         2.9          1.4
## 10          4.9         3.1          1.5
## # ℹ 140 more rows
## # ℹ 1 more variable: Petal.Width <dbl>
…
observations: 2,930

objective: use property attributes to predict the sale price of a home

# access data
ames <- readr::read_csv(here(data_path, "ames.csv"))

# initial dimension
dim(ames)
## [1] 2930   81

# features
dplyr::select(ames, -Sale_Price)
## # A tibble: 2,930 × 80
##    MS_SubClass        MS_Zoning Lot_Frontage
##    <chr>              <chr>            <dbl>
##  1 One_Story_1946_an… Resident…          141
##  2 One_Story_1946_an… Resident…           80
##  3 One_Story_1946_an… Resident…           81
##  4 One_Story_1946_an… Resident…           93
##  5 Two_Story_1946_an… Resident…           74
##  6 Two_Story_1946_an… Resident…           78
##  7 One_Story_PUD_194… Resident…           41
##  8 One_Story_PUD_194… Resident…           43
##  9 One_Story_PUD_194… Resident…           39
## 10 Two_Story_1946_an… Resident…           60
## # ℹ 2,920 more rows
## # ℹ 77 more variables: Lot_Area <dbl>,
## #   Street <chr>, Alley <chr>,
## #   Lot_Shape <chr>, Land_Contour <chr>,
## #   Utilities <chr>, Lot_Config <chr>,
## #   Land_Slope <chr>, Neighborhood <chr>,
## #   Condition_1 <chr>, Condition_2 <chr>, …
…
observations: 1,470

objective: use employee attributes to predict if they will attrit (leave the company)

# access data
attrition <- readr::read_csv(here(data_path, "attrition.csv"))

# initial dimension
dim(attrition)
## [1] 1470   31

# features
dplyr::select(attrition, -Attrition)
## # A tibble: 1,470 × 30
##      Age BusinessTravel DailyRate Department
##    <dbl> <chr>              <dbl> <chr>     
##  1    41 Travel_Rarely       1102 Sales     
##  2    49 Travel_Freque…       279 Research_…
##  3    37 Travel_Rarely       1373 Research_…
##  4    33 Travel_Freque…      1392 Research_…
##  5    27 Travel_Rarely        591 Research_…
##  6    32 Travel_Freque…      1005 Research_…
##  7    59 Travel_Rarely       1324 Research_…
##  8    30 Travel_Rarely       1358 Research_…
##  9    38 Travel_Freque…       216 Research_…
## 10    36 Travel_Rarely       1299 Research_…
## # ℹ 1,460 more rows
## # ℹ 26 more variables:
## #   DistanceFromHome <dbl>,
## #   Education <chr>, EducationField <chr>,
## #   EnvironmentSatisfaction <chr>,
## #   Gender <chr>, HourlyRate <dbl>,
## #   JobInvolvement <chr>, JobLevel <dbl>, …
…
observations: 322

objective: use baseball player’s batting attributes to predict their salary.

# access data
hitters <- readr::read_csv(here(data_path, "hitters.csv"))

# initial dimension
dim(hitters)
## [1] 322  21

# features
dplyr::select(hitters, -Salary, -Player)
## # A tibble: 322 × 19
##    AtBat  Hits HmRun  Runs   RBI Walks Years
##    <dbl> <dbl> <dbl> <dbl> <dbl> <dbl> <dbl>
##  1   293    66     1    30    29    14     1
##  2   315    81     7    24    38    39    14
##  3   479   130    18    66    72    76     3
##  4   496   141    20    65    78    37    11
##  5   321    87    10    39    42    30     2
##  6   594   169     4    74    51    35    11
##  7   185    37     1    23     8    21     2
##  8   298    73     0    24    24     7     3
##  9   323    81     6    26    32     8     2
## 10   401    92    17    49    66    65    13
## # ℹ 312 more rows
## # ℹ 12 more variables: CAtBat <dbl>,
## #   CHits <dbl>, CHmRun <dbl>, CRuns <dbl>,
## #   CRBI <dbl>, CWalks <dbl>, League <chr>,
## #   Division <chr>, PutOuts <dbl>,
## #   Assists <dbl>, Errors <dbl>,
## #   NewLeague <chr>
…
